tools/reflector-client/logiccap.vcd
$date
  Sun Jan 26 01:37:54 2020
$end
$version
  LogicCap v1.0
$end
$timescale
  1 us
$end
$scope module signals $end
$var reg 1 ! s_calib_done $end
$var reg 1 " s_ram_write $end
$var reg 1 # s_ram_read $end
$var reg 1 $ s_ram_wait $end
$var reg 30 % s_ram_addr $end
$var reg 8 & s_ram_din $end
$var reg 8 ' s_ram_dout $end
$upscope $end
$enddefinitions $end
$dumpvars
#0
U!
U"
U#
U$
bUUUUUUUUUUUUUUUUUUUUUUUUUUUUUU %
bUUUUUUUU &
bUUUUUUUU '
#1
1!
0"
0#
0$
b000000000000000000000000000000 %
b00000000 &
b00000000 '
#6
b000000000000000000000000000001 %
#9
b000000000000000000000000000010 %
#11
b000000000000000000000000000001 %
#13
b000000000000000000000000000011 %
#16
b000000000000000000000000000100 %
#19
b000000000000000000000000000000 %
#20
1"
b10100101 &
#21
0"
#22
b000000000000000000000000000101 %
#23
b00000000 &
#24
b000000000000000000000000000010 %
#26
b000000000000000000000000000110 %
#27
b10100101 &
#28
b000000000000000000000000000011 %
#30
b000000000000000000000000000111 %
#31
b00000000 &
#33
b000000000000000000000000001000 %
#36
b000000000000000000000000000000 %
#37
1#
#38
0#
b10100101 '
#39
b000000000000000000000000001001 %
#41
b000000000000000000000000000100 %
#43
b000000000000000000000000001010 %
#46
b000000000000000000000000000000 %
#50
b000000000000000000000000001011 %
#52
b000000000000000000000000000101 %
#54
b000000000000000000000000001100 %
#57
b000000000000000000000000001101 %
#62
b000000000000000000000000001011 %
#64
b000000000000000000000000000110 %
#66
b000000000000000000000000001100 %
#69
b000000000000000000000000001101 %
#74
b000000000000000000000000001011 %
#76
b000000000000000000000000000111 %
#78
b000000000000000000000000001100 %
#81
b000000000000000000000000001101 %
#86
b000000000000000000000000001011 %
#88
b000000000000000000000000001000 %
#90
b000000000000000000000000001100 %
#93
b000000000000000000000000001101 %
#98
b000000000000000000000000001011 %
#100
b000000000000000000000000001001 %
#102
b000000000000000000000000001100 %
#105
b000000000000000000000000001101 %
#110
b000000000000000000000000001011 %
#112
b000000000000000000000000001010 %
#114
b000000000000000000000000001100 %
#117
b000000000000000000000000001101 %
#122
b000000000000000000000000001011 %
#126
b000000000000000000000000001100 %
#129
b000000000000000000000000001101 %
#134
b000000000000000000000000001011 %
#136
b000000000000000000000000001100 %
#141
b000000000000000000000000001101 %
#146
b000000000000000000000000001011 %
#148
b000000000000000000000000001101 %
#150
b000000000000000000000000001100 %
#153
b000000000000000000000000001101 %
#158
b000000000000000000000000001011 %
#160
b000000000000000000000000001110 %
#162
b000000000000000000000000001100 %
#165
b000000000000000000000000001101 %
#170
b000000000000000000000000001011 %
#172
b000000000000000000000000001111 %
#174
b000000000000000000000000001100 %
#177
b000000000000000000000000001101 %
#182
b000000000000000000000000001011 %
#184
b000000000000000000000000010000 %
#186
b000000000000000000000000001100 %
#189
b000000000000000000000000001101 %
#194
b000000000000000000000000001011 %
#196
b000000000000000000000000010001 %
#198
b000000000000000000000000001100 %
#201
b000000000000000000000000001101 %
#206
b000000000000000000000000001011 %
#208
b000000000000000000000000010010 %
#210
b000000000000000000000000001100 %
#213
b000000000000000000000000001101 %
#218
b000000000000000000000000001011 %
#220
b000000000000000000000000010011 %
#222
b000000000000000000000000001100 %
#225
b000000000000000000000000001101 %
#230
b000000000000000000000000001011 %
#232
b000000000000000000000000010100 %
#234
b000000000000000000000000001100 %
#237
b000000000000000000000000001101 %
#242
b000000000000000000000000001011 %
#244
b000000000000000000000000010101 %
#246
b000000000000000000000000001100 %
#249
b000000000000000000000000001101 %
#254
b000000000000000000000000001011 %
#256
b000000000000000000000000010110 %
