tools/reflector-client/sandbox.vcd
$date
  Sun Jan 19 12:09:53 2020
$end
$version
  Reflector v1.0
$end
$timescale
  1 ms
$end
$scope module signals $end
$var reg 8 ! o_leds $end
$var reg 12 " o_counter $end
$var reg 4 # i_buttons $end
$var reg 8 $ i_counter $end
$upscope $end
$enddefinitions $end
$dumpvars
#0
bUUUUUUUU !
bUUUUUUUUUUUU "
bUUUU #
bUUUUUUUU $
#14
b00000001 !
b000000000000 "
b0000 #
b00000000 $
#17
b01101101 $
#215
b01101110 $
#414
b01101111 $
#503
b00000010 !
b000000000001 "
#614
b01110000 $
#815
b01110001 $
#1003
b00000100 !
b000000000010 "
#1015
b01110010 $
#1214
b01110011 $
#1415
b01110100 $
#1502
b00001000 !
b000000000011 "
#1614
b01110101 $
#1814
b01110110 $
#2002
b00010000 !
b000000000100 "
#2016
b01110111 $
#2216
b01111000 $
#2416
b01111001 $
#2503
b00100000 !
b000000000101 "
#2616
b01111010 $
#2815
b01111011 $
#3003
b01000000 !
b000000000110 "
#3017
b01111100 $
#3215
b01111101 $
#3415
b01111110 $
#3504
b10000000 !
b000000000111 "
#3614
b01111111 $
#3815
b10000000 $
#4004
b00000001 !
b000000001000 "
#4015
b10000001 $
#4215
b10000010 $
#4415
b10000011 $
#4504
b00000010 !
b000000001001 "
#4616
b10000100 $
#4815
b10000101 $
#5005
b00000100 !
b000000001010 "
#5015
b10000110 $
#5214
b10000111 $
#5415
b10001000 $
#5505
b00001000 !
b000000001011 "
#5615
b10001001 $
#5821
b10001010 $
#6006
b00010000 !
b000000001100 "
#6015
b10001011 $
#6215
b10001100 $
#6415
b10001101 $
#6506
b00100000 !
b000000001101 "
#6615
b10001110 $
#6816
b10001111 $
#7006
b01000000 !
b000000001110 "
#7019
b10010000 $
#7215
b10010001 $
#7414
b10010010 $
#7506
b10000000 !
b000000001111 "
#7614
b10010011 $
#7816
b10010100 $
#8006
b00000001 !
b000000010000 "
#8016
b10010101 $
#8217
b10010110 $
#8415
b10010111 $
#8506
b00000010 !
b000000010001 "
#8613
b10011000 $
#8819
b10011001 $
#9006
b00000100 !
b000000010010 "
#9015
b10011010 $
#9217
b10011011 $
#9416
b10011100 $
#9506
b00001000 !
b000000010011 "
#9615
b10011101 $
#9814
b10011110 $
#10007
b00010000 !
b000000010100 "
#10014
b10011111 $
#10214
b10100000 $
#10415
b10100001 $
#10509
b00100000 !
b000000010101 "
#10614
b10100010 $
#10814
b10100011 $
#11010
b01000000 !
b000000010110 "
#11016
b10100100 $
#11215
b10100101 $
#11419
b10100110 $
#11510
b10000000 !
b000000010111 "
#11614
b10100111 $
#11814
b10101000 $
#12011
b00000001 !
b000000011000 "
#12026
b10101001 $
#12216
b10101010 $
#12415
b10101011 $
#12511
b00000010 !
b000000011001 "
#12615
b10101100 $
#12815
b10101101 $
#13011
b00000100 !
b000000011010 "
#13027
b10101110 $
#13215
b10101111 $
#13415
b10110000 $
#13512
b00001000 !
b000000011011 "
#13614
b10110001 $
#13816
b10110010 $
#14012
b00010000 !
b000000011100 "
#14017
b10110011 $
#14214
b10110100 $
#14415
b10110101 $
#14513
b00100000 !
b000000011101 "
#14615
b10110110 $
#14815
b10110111 $
#15013
b01000000 !
b000000011110 "
#15018
b10111000 $
#15214
b10111001 $
#15414
b10111010 $
#15513
b10000000 !
b000000011111 "
#15614
b10111011 $
#15830
b10111100 $
#16013
b00000001 !
b000000100000 "
#16020
b10111101 $
#16213
b10111110 $
#16414
b10111111 $
#16514
b00000010 !
b000000100001 "
#16613
b11000000 $
#16814
b11000001 $
#17014
b00000100 !
b000000100010 "
#17017
b11000010 $
#17214
b11000011 $
#17414
b11000100 $
#17515
b00001000 !
b000000100011 "
#17614
b11000101 $
#17814
b11000110 $
#18013
b11000111 $
#18017
b00010000 !
b000000100100 "
#18214
b11001000 $
#18413
b11001001 $
#18519
b00100000 !
b000000100101 "
#18614
b11001010 $
#18813
b11001011 $
#19013
b11001100 $
#19020
b01000000 !
b000000100110 "
#19214
b11001101 $
#19414
b11001110 $
#19520
b10000000 !
b000000100111 "
#19615
b11001111 $
#19815
b11010000 $
#20013
b11010001 $
#20021
b00000001 !
b000000101000 "
#20213
b11010010 $
#20413
b11010011 $
#20521
b00000010 !
b000000101001 "
#20614
b11010100 $
#20814
b11010101 $
#21014
b11010110 $
#21022
b00000100 !
b000000101010 "
#21216
b11010111 $
#21414
b11011000 $
#21522
b00001000 !
b000000101011 "
#21613
b11011001 $
#21813
b11011010 $
#22013
b11011011 $
#22023
b00010000 !
b000000101100 "
#22213
b11011100 $
#22413
b11011101 $
#22523
b00100000 !
b000000101101 "
#22613
b11011110 $
#22814
b11011111 $
#23014
b11100000 $
#23024
b01000000 !
b000000101110 "
#23213
b11100001 $
#23414
b11100010 $
#23525
b10000000 !
b000000101111 "
#23614
b11100011 $
#23814
b11100100 $
#24013
b11100101 $
#24036
b00000001 !
b000000110000 "
#24214
b11100110 $
#24414
b11100111 $
#24535
b00000010 !
b000000110001 "
#24613
b11101000 $
#24814
b11101001 $
#25014
b11101010 $
#25035
b00000100 !
b000000110010 "
#25214
b11101011 $
#25413
b11101100 $
#25536
b00001000 !
b000000110011 "
#25614
b11101101 $
#25814
b11101110 $
#26014
b11101111 $
#26037
b00010000 !
b000000110100 "
#26213
b11110000 $
#26414
b11110001 $
#26537
b00100000 !
b000000110101 "
#26614
b11110010 $
#26814
b11110011 $
#27014
b11110100 $
#27039
b01000000 !
b000000110110 "
#27213
b11110101 $
#27414
b11110110 $
#27537
b10000000 !
b000000110111 "
#27613
b11110111 $
#27819
b11111000 $
#28013
b11111001 $
#28039
b00000001 !
b000000111000 "
#28214
b11111010 $
#28414
b11111011 $
#28539
b00000010 !
b000000111001 "
#28614
b11111100 $
#28814
b11111101 $
#29014
b11111110 $
#29040
b00000100 !
b000000111010 "
#29213
b11111111 $
#29413
b00000000 $
#29540
b00001000 !
b000000111011 "
#29613
b00000001 $
#29813
b00000010 $
#30013
b00000011 $
#30041
b00010000 !
b000000111100 "
#30214
b00000100 $
#30414
b00000101 $
#30542
b00100000 !
b000000111101 "
#30613
b00000110 $
#30814
b00000111 $
#31012
b00001000 $
#31042
b01000000 !
b000000111110 "
#31214
b00001001 $
#31413
b00001010 $
#31542
b10000000 !
b000000111111 "
#31615
b00001011 $
#31813
b00001100 $
#32014
b00001101 $
#32043
b00000001 !
b000001000000 "
#32213
b00001110 $
#32414
b00001111 $
#32544
b00000010 !
b000001000001 "
#32613
b00010000 $
#32819
b00010001 $
#33014
b00010010 $
#33046
b00000100 !
b000001000010 "
#33213
b00010011 $
#33413
b00010100 $
#33547
b00001000 !
b000001000011 "
#33613
b00010101 $
#33814
b00010110 $
#34013
b00010111 $
#34047
b00010000 !
b000001000100 "
#34214
b00011000 $
#34414
b00011001 $
#34547
b00100000 !
b000001000101 "
#34614
b00011010 $
#34812
b00011011 $
#35013
b00011100 $
#35049
b01000000 !
b000001000110 "
#35213
b00011101 $
#35414
b00011110 $
#35550
b10000000 !
b000001000111 "
#35613
b00011111 $
#35813
b00100000 $
#36014
b00100001 $
#36052
b00000001 !
b000001001000 "
#36214
b00100010 $
#36413
b00100011 $
#36552
b00000010 !
b000001001001 "
#36612
b00100100 $
#36814
b00100101 $
#37014
b00100110 $
#37052
b00000100 !
b000001001010 "
#37213
b00100111 $
#37415
b00101000 $
#37552
b00001000 !
b000001001011 "
#37613
b00101001 $
#37814
b00101010 $
#38013
b00101011 $
#38054
b00010000 !
b000001001100 "
#38212
b00101100 $
#38413
b00101101 $
#38554
b00100000 !
b000001001101 "
#38615
b00101110 $
#38813
b00101111 $
#39012
b00110000 $
#39076
b01000000 !
b000001001110 "
#39213
b00110001 $
#39412
b00110010 $
#39576
b10000000 !
b000001001111 "
#39612
b00110011 $
#39817
b00110100 $
#40013
b00110101 $
#40082
b00000001 !
b000001010000 "
#40213
b00110110 $
#40413
b00110111 $
#40583
b00000010 !
b000001010001 "
#40613
b00111000 $
#40813
b00111001 $
#41012
b00111010 $
#41084
b00000100 !
b000001010010 "
#41213
b00111011 $
#41413
b00111100 $
#41584
b00001000 !
b000001010011 "
#41613
b00111101 $
#41813
b00111110 $
#42017
b00111111 $
#42121
b00010000 !
b000001010100 "
#42219
b01000000 $
#42415
b01000001 $
#42618
b01000010 $
#42621
b00100000 !
b000001010101 "
#42813
b01000011 $
#43016
b01000100 $
#43122
b01000000 !
b000001010110 "
#43212
b01000101 $
#43413
b01000110 $
#43614
b01000111 $
#43623
b10000000 !
b000001010111 "
#43814
b01001000 $
#44013
b01001001 $
#44123
b00000001 !
b000001011000 "
#44214
b01001010 $
#44412
b01001011 $
#44612
b01001100 $
#44624
b00000010 !
b000001011001 "
#44812
b01001101 $
#45031
b01001110 $
#45125
b00000100 !
b000001011010 "
#45217
b01001111 $
#45418
b01010000 $
#45617
b01010001 $
#45626
b00001000 !
b000001011011 "
#45817
b01010010 $
#46012
b01010011 $
#46127
b00010000 !
b000001011100 "
#46213
b01010100 $
#46413
b01010101 $
#46614
b01010110 $
#46628
b00100000 !
b000001011101 "
#46815
b01010111 $
#47012
b01011000 $
#47129
b01000000 !
b000001011110 "
#47213
b01011001 $
#47413
b01011010 $
#47613
b01011011 $
#47629
b10000000 !
b000001011111 "
#47813
b01011100 $
#48012
b01011101 $
#48130
b00000001 !
b000001100000 "
#48213
b01011110 $
#48414
b01011111 $
#48613
b01100000 $
#48635
b00000010 !
b000001100001 "
#48813
b01100001 $
#49012
b01100010 $
#49134
b00000100 !
b000001100010 "
#49212
b01100011 $
#49413
b01100100 $
#49612
b01100101 $
#49634
b00001000 !
b000001100011 "
#49813
b01100110 $
#50012
b01100111 $
#50134
b00010000 !
b000001100100 "
#50213
b01101000 $
#50412
b01101001 $
#50613
b01101010 $
#50635
b00100000 !
b000001100101 "
#50813
b01101011 $
#51013
b01101100 $
#51136
b01000000 !
b000001100110 "
#51212
b01101101 $
#51413
b01101110 $
#51612
b01101111 $
#51637
b10000000 !
b000001100111 "
#51813
b01110000 $
#52012
b01110001 $
#52138
b00000001 !
b000001101000 "
#52213
b01110010 $
#52412
b01110011 $
#52613
b01110100 $
#52640
b00000010 !
b000001101001 "
#52813
b01110101 $
#53012
b01110110 $
#53141
b00000100 !
b000001101010 "
#53211
b01110111 $
#53412
b01111000 $
#53613
b01111001 $
#53642
b00001000 !
b000001101011 "
#53812
b01111010 $
#54012
b01111011 $
#54142
b00010000 !
b000001101100 "
#54213
b01111100 $
#54412
b01111101 $
#54612
b01111110 $
#54642
b00100000 !
b000001101101 "
#54813
b01111111 $
#55013
b10000000 $
#55143
b01000000 !
b000001101110 "
#55212
b10000001 $
#55413
b10000010 $
#55612
b10000011 $
#55644
b10000000 !
b000001101111 "
#55812
b10000100 $
#56012
b10000101 $
#56145
b00000001 !
b000001110000 "
#56212
b10000110 $
#56412
b10000111 $
#56612
b10001000 $
#56644
b00000010 !
b000001110001 "
#56811
b10001001 $
#57013
b10001010 $
#57144
b00000100 !
b000001110010 "
#57212
b10001011 $
#57413
b10001100 $
#57612
b10001101 $
#57644
b00001000 !
b000001110011 "
#57812
b10001110 $
#58012
b10001111 $
#58144
b00010000 !
b000001110100 "
#58212
b10010000 $
#58413
b10010001 $
#58611
b10010010 $
#58645
b00100000 !
b000001110101 "
#58811
b10010011 $
#59012
b10010100 $
#59145
b01000000 !
b000001110110 "
#59212
b10010101 $
#59411
b10010110 $
#59612
b10010111 $
#59646
b10000000 !
b000001110111 "
#59812
b10011000 $
#60013
b10011001 $
#60147
b00000001 !
b000001111000 "
#60212
b10011010 $
#60412
b10011011 $
#60612
b10011100 $
#60647
b00000010 !
b000001111001 "
#60812
b10011101 $
#61012
b10011110 $
#61148
b00000100 !
b000001111010 "
#61212
b10011111 $
#61413
b10100000 $
#61612
b10100001 $
#61649
b00001000 !
b000001111011 "
#61812
b10100010 $
#62013
b10100011 $
#62150
b00010000 !
b000001111100 "
#62215
b10100100 $
#62412
b10100101 $
#62612
b10100110 $
#62650
b00100000 !
b000001111101 "
#62813
b10100111 $
#63012
b10101000 $
#63150
b01000000 !
b000001111110 "
#63215
b10101001 $
#63411
b10101010 $
#63612
b10101011 $
#63651
b10000000 !
b000001111111 "
#63812
b10101100 $
#64012
b10101101 $
#64152
b00000001 !
b000010000000 "
#64213
b10101110 $
#64411
b10101111 $
#64613
b10110000 $
#64652
b00000010 !
b000010000001 "
#64813
b10110001 $
#65012
b10110010 $
#65153
b00000100 !
b000010000010 "
#65212
b10110011 $
#65413
b10110100 $
#65612
b10110101 $
#65654
b00001000 !
b000010000011 "
#65813
b10110110 $
#66011
b10110111 $
#66153
b00010000 !
b000010000100 "
#66213
b10111000 $
#66413
b10111001 $
#66612
b10111010 $
#66653
b00100000 !
b000010000101 "
#66812
b10111011 $
#67012
b10111100 $
#67153
b01000000 !
b000010000110 "
#67212
b10111101 $
#67413
b10111110 $
#67611
b10111111 $
#67655
b10000000 !
b000010000111 "
#67811
b11000000 $
#68012
b11000001 $
#68154
b00000001 !
b000010001000 "
#68211
b11000010 $
#68412
b11000011 $
#68612
b11000100 $
#68655
b00000010 !
b000010001001 "
#68813
b11000101 $
#69012
b11000110 $
#69157
b00000100 !
b000010001010 "
#69212
b11000111 $
#69414
b11001000 $
#69612
b11001001 $
#69658
b00001000 !
b000010001011 "
#69814
b11001010 $
#70013
b11001011 $
#70160
b00010000 !
b000010001100 "
#70212
b11001100 $
#70412
b11001101 $
#70615
b11001110 $
#70667
b00100000 !
b000010001101 "
#70811
b11001111 $
#71013
b11010000 $
#71169
b01000000 !
b000010001110 "
#71213
b11010001 $
#71412
b11010010 $
#71613
b11010011 $
#71669
b10000000 !
b000010001111 "
#71812
b11010100 $
#72012
b11010101 $
#72169
b00000001 !
b000010010000 "
#72213
b11010110 $
#72412
b11010111 $
#72612
b11011000 $
#72670
b00000010 !
b000010010001 "
#72812
b11011001 $
#73012
b11011010 $
#73171
b00000100 !
b000010010010 "
#73212
b11011011 $
#73411
b11011100 $
#73612
b11011101 $
#73672
b00001000 !
b000010010011 "
#73813
b11011110 $
#74012
b11011111 $
#74172
b00010000 !
b000010010100 "
#74212
b11100000 $
#74414
b11100001 $
#74611
b11100010 $
#74673
b00100000 !
b000010010101 "
#74816
b11100011 $
#75011
b11100100 $
#75173
b01000000 !
b000010010110 "
#75216
b11100101 $
#75413
b11100110 $
#75611
b11100111 $
#75673
b10000000 !
b000010010111 "
#75816
b11101000 $
#76012
b11101001 $
#76173
b00000001 !
b000010011000 "
#76215
b11101010 $
#76412
b11101011 $
#76612
b11101100 $
#76674
b00000010 !
b000010011001 "
#76816
b11101101 $
#77012
b11101110 $
#77174
b00000100 !
b000010011010 "
#77211
b11101111 $
#77412
b11110000 $
#77612
b11110001 $
#77676
b00001000 !
b000010011011 "
#77816
b11110010 $
#78017
b11110011 $
#78174
b00010000 !
b000010011100 "
#78212
b11110100 $
#78413
b11110101 $
#78611
b11110110 $
#78674
b00100000 !
b000010011101 "
#78812
b11110111 $
#79011
b11111000 $
#79174
b01000000 !
b000010011110 "
#79212
b11111001 $
#79412
b11111010 $
#79612
b11111011 $
#79675
b10000000 !
b000010011111 "
#79812
b11111100 $
#80012
b11111101 $
#80174
b00000001 !
b000010100000 "
#80213
b11111110 $
#80412
b11111111 $
#80612
b00000000 $
#80675
b00000010 !
b000010100001 "
#80812
b00000001 $
#81012
b00000010 $
#81175
b00000100 !
b000010100010 "
#81212
b00000011 $
#81411
b00000100 $
#81612
b00000101 $
#81675
b00001000 !
b000010100011 "
#81811
b00000110 $
#82012
b00000111 $
#82176
b00010000 !
b000010100100 "
#82211
b00001000 $
#82412
b00001001 $
#82612
b00001010 $
#82676
b00100000 !
b000010100101 "
#82812
b00001011 $
#83011
b00001100 $
#83177
b01000000 !
b000010100110 "
#83212
b00001101 $
#83412
b00001110 $
#83612
b00001111 $
#83676
b10000000 !
b000010100111 "
#83811
b00010000 $
#84012
b00010001 $
#84177
b00000001 !
b000010101000 "
#84211
b00010010 $
#84412
b00010011 $
#84612
b00010100 $
#84677
b00000010 !
b000010101001 "
#84812
b00010101 $
#85012
b00010110 $
#85179
b00000100 !
b000010101010 "
#85211
b00010111 $
#85411
b00011000 $
#85612
b00011001 $
#85679
b00001000 !
b000010101011 "
#85811
b00011010 $
#86012
b00011011 $
#86178
b00010000 !
b000010101100 "
#86211
b00011100 $
#86411
b00011101 $
#86611
b00011110 $
#86679
b00100000 !
b000010101101 "
#86812
b00011111 $
#87011
b00100000 $
#87178
b01000000 !
b000010101110 "
#87212
b00100001 $
#87412
b00100010 $
#87612
b00100011 $
#87678
b10000000 !
b000010101111 "
#87812
b00100100 $
#88011
b00100101 $
#88179
b00000001 !
b000010110000 "
#88212
b00100110 $
#88411
b00100111 $
#88611
b00101000 $
#88679
b00000010 !
b000010110001 "
#88811
b00101001 $
#89011
b00101010 $
#89181
b00000100 !
b000010110010 "
#89212
b00101011 $
#89412
b00101100 $
#89611
b00101101 $
#89681
b00001000 !
b000010110011 "
#89811
b00101110 $
#90011
b00101111 $
#90182
b00010000 !
b000010110100 "
#90211
b00110000 $
#90412
b00110001 $
#90611
b00110010 $
#90683
b00100000 !
b000010110101 "
#90811
b00110011 $
#91011
b00110100 $
#91185
b01000000 !
b000010110110 "
#91211
b00110101 $
#91410
b00110110 $
#91611
b00110111 $
#91684
b10000000 !
b000010110111 "
#91811
b00111000 $
#92011
b00111001 $
#92185
b00000001 !
b000010111000 "
#92213
b00111010 $
#92411
b00111011 $
#92611
b00111100 $
#92684
b00000010 !
b000010111001 "
#92811
b00111101 $
#93011
b00111110 $
#93184
b00000100 !
b000010111010 "
#93211
b00111111 $
#93411
b01000000 $
#93611
b01000001 $
#93685
b00001000 !
b000010111011 "
#93810
b01000010 $
#94011
b01000011 $
#94184
b00010000 !
b000010111100 "
#94210
b01000100 $
#94411
b01000101 $
#94610
b01000110 $
#94684
b00100000 !
b000010111101 "
#94812
b01000111 $
#95011
b01001000 $
#95185
b01000000 !
b000010111110 "
#95211
b01001001 $
#95411
b01001010 $
#95611
b01001011 $
#95684
b10000000 !
b000010111111 "
#95811
b01001100 $
#96011
b01001101 $
#96184
b00000001 !
b000011000000 "
#96213
b01001110 $
#96410
b01001111 $
#96612
b01010000 $
#96685
b00000010 !
b000011000001 "
#96811
b01010001 $
#97012
b01010010 $
#97185
b00000100 !
b000011000010 "
#97211
b01010011 $
#97411
b01010100 $
#97610
b01010101 $
#97685
b00001000 !
b000011000011 "
#97811
b01010110 $
#98011
b01010111 $
#98187
b00010000 !
b000011000100 "
#98211
b01011000 $
#98411
b01011001 $
#98611
b01011010 $
#98686
b00100000 !
b000011000101 "
#98811
b01011011 $
#99011
b01011100 $
#99187
b01000000 !
b000011000110 "
#99212
b01011101 $
#99410
b01011110 $
#99610
b01011111 $
#99686
b10000000 !
b000011000111 "
#99811
b01100000 $
#100011
b01100001 $
#100186
b00000001 !
b000011001000 "
#100215
b01100010 $
#100411
b01100011 $
#100611
b01100100 $
#100687
b00000010 !
b000011001001 "
#100811
b01100101 $
#101011
b01100110 $
#101187
b00000100 !
b000011001010 "
#101211
b01100111 $
#101411
b01101000 $
#101610
b01101001 $
#101687
b00001000 !
b000011001011 "
#101810
b01101010 $
#102010
b01101011 $
#102187
b00010000 !
b000011001100 "
#102212
b01101100 $
#102411
b01101101 $
#102610
b01101110 $
#102687
b00100000 !
b000011001101 "
#102811
b01101111 $
#103011
b01110000 $
#103189
b01000000 !
b000011001110 "
#103211
b01110001 $
#103411
b01110010 $
#103610
b01110011 $
#103689
b10000000 !
b000011001111 "
#103810
b01110100 $
#104011
b01110101 $
#104189
b00000001 !
b000011010000 "
#104211
b01110110 $
#104411
b01110111 $
#104611
b01111000 $
#104688
b00000010 !
b000011010001 "
#104810
b01111001 $
#105011
b01111010 $
#105188
b00000100 !
b000011010010 "
#105211
b01111011 $
#105411
b01111100 $
#105610
b01111101 $
#105689
b00001000 !
b000011010011 "
#105813
b01111110 $
#106011
b01111111 $
#106188
b00010000 !
b000011010100 "
#106211
b10000000 $
#106411
b10000001 $
#106611
b10000010 $
#106688
b00100000 !
b000011010101 "
#106811
b10000011 $
#107011
b10000100 $
#107189
b01000000 !
b000011010110 "
#107211
b10000101 $
#107411
b10000110 $
#107611
b10000111 $
#107690
b10000000 !
b000011010111 "
#107811
b10001000 $
#108011
b10001001 $
#108191
b00000001 !
b000011011000 "
#108212
b10001010 $
#108411
b10001011 $
#108611
b10001100 $
#108691
b00000010 !
b000011011001 "
#108812
b10001101 $
#109011
b10001110 $
#109191
b00000100 !
b000011011010 "
#109211
b10001111 $
#109411
b10010000 $
#109611
b10010001 $
#109692
b00001000 !
b000011011011 "
#109811
b10010010 $
#110011
b10010011 $
#110192
b00010000 !
b000011011100 "
