tools/reflector-client/sandbox.vcd
$date
  Sun Jan 19 11:21:26 2020
$end
$version
  Reflector v1.0
$end
$timescale
  1 ms
$end
$scope module signals $end
$var reg 8 ! o_leds $end
$var reg 12 " o_counter $end
$var reg 4 # i_buttons $end
$var reg 8 $ i_counter $end
$upscope $end
$enddefinitions $end
$dumpvars
#0
bUUUUUUUU !
bUUUUUUUUUUUU "
bUUUU #
bUUUUUUUU $
#17
b00000001 !
b000000000000 "
b0000 #
b00000000 $
#102
b00110100 $
#319
b00110101 $
#502
b00000010 !
b000000000001 "
#516
b00110110 $
#713
b00110111 $
#910
b00111000 $
#1002
b00000100 !
b000000000010 "
#1103
b00111001 $
#1300
b00111010 $
#1502
b00001000 !
b000000000011 "
#1518
b00111011 $
#1715
b00111100 $
#1912
b00111101 $
#2002
b00010000 !
b000000000100 "
#2105
b00111110 $
#2302
b00111111 $
#2503
b00100000 !
b000000000101 "
#2519
b01000000 $
#2690
b1000 #
#2699
b01000001 $
#2913
b01000010 $
#3003
b01000000 !
b000000000110 "
#3106
b01000011 $
#3161
b0000 #
#3317
b01000100 $
#3493
b1000 #
#3502
b01000101 $
#3507
b10000000 !
b000000000111 "
#3708
b01000110 $
#3752
b0000 #
#3908
b01000111 $
#4007
b00000001 !
b000000001000 "
#4042
b0001 #
#4101
b01001000 $
#4277
b0000 #
#4301
b01001001 $
#4425
b0001 #
#4507
b00000010 !
b000000001001 "
#4511
b01001010 $
#4665
b0000 #
#4702
b01001011 $
#4918
b01001100 $
#4923
b0100 #
#5016
b00000100 !
b000000001010 "
#5107
b01001101 $
#5276
b0000 #
#5308
b01001110 $
#5503
b01001111 $
#5515
b00001000 !
b000000001011 "
#5714
b01010000 $
#5845
b0010 #
#5906
b01010001 $
#6016
b00010000 !
b000000001100 "
#6075
b0000 #
#6104
b01010010 $
#6280
b0010 #
#6320
b01010011 $
#6481
b0000 #
#6505
b01010100 $
#6516
b00100000 !
b000000001101 "
#6684
b1000 #
#6701
b01010101 $
#6915
b01010110 $
#6941
b0000 #
#7017
b01000000 !
b000000001110 "
#7105
b01010111 $
#7315
b01011000 $
#7490
b0001 #
#7503
b01011001 $
#7523
b10000000 !
b000000001111 "
#7703
b01011010 $
#7918
b01011011 $
#8025
b00000001 !
b000000010000 "
#8101
b01011100 $
#8312
b01011101 $
#8506
b01011110 $
#8525
b00000010 !
b000000010001 "
#8708
b01011111 $
#8902
b01100000 $
#9043
b00000100 !
b000000010010 "
#9056
b0011 #
#9107
b01100001 $
#9301
b01100010 $
#9516
b01100011 $
#9545
b00001000 !
b000000010011 "
#9722
b01100100 $
#9914
b01100101 $
#10068
b00010000 !
b000000010100 "
#10104
b01100110 $
#10280
b1011 #
#10306
b01100111 $
#10519
b01101000 $
#10569
b00100000 !
b000000010101 "
#10715
b01101001 $
#10907
b01101010 $
#11070
b01000000 !
b000000010110 "
#11102
b01101011 $
#11315
b01101100 $
#11509
b01101101 $
#11561
b0011 #
#11571
b10000000 !
b000000010111 "
#11582
b0111 #
#11715
b01101110 $
#11908
b01101111 $
#12004
b0001 #
#12014
b0000 #
#12071
b00000001 !
b000000011000 "
#12101
b01110000 $
#12316
b01110001 $
#12511
b01110010 $
#12571
b00000010 !
b000000011001 "
#12712
b01110011 $
#12907
b01110100 $
#13086
b00000100 !
b000000011010 "
#13101
b01110101 $
#13314
b01110110 $
#13509
b01110111 $
#13587
b00001000 !
b000000011011 "
#13706
b01111000 $
#13925
b01111001 $
#14088
b00010000 !
b000000011100 "
#14103
b01111010 $
