tools/reflector-client/z80fail.vcd
$date
  Sun Jan 26 04:01:09 2020
$end
$version
  LogicCap v1.0
$end
$timescale
  1 us
$end
$scope module signals $end
$var reg 1 ! s_calib_done $end
$var reg 1 " s_ram_write $end
$var reg 1 # s_ram_read $end
$var reg 1 $ s_ram_wait $end
$var reg 15 % s_ram_addr $end
$var reg 8 & s_ram_din $end
$var reg 8 ' s_ram_dout $end
$var reg 16 ( s_cpu_addr $end
$var reg 8 ) s_cpu_din $end
$var reg 8 * s_cpu_dout $end
$var reg 1 + s_cpu_mreq_n $end
$var reg 1 , s_cpu_iorq_n $end
$var reg 1 - s_cpu_rd_n $end
$var reg 1 . s_cpu_wr_n $end
$upscope $end
$enddefinitions $end
$dumpvars
#0
U!
U"
U#
U$
bUUUUUUUUUUUUUUU %
bUUUUUUUU &
bUUUUUUUU '
bUUUUUUUUUUUUUUUU (
bUUUUUUUU )
bUUUUUUUU *
U+
U,
U-
U.
#1
1!
0"
0#
0$
b000000000000000 %
b00000000 &
b00000000 '
b0000000000000000 (
b11111111 )
b00000000 *
1+
1,
1-
1.
#3
b00111110 )
0+
0-
#4
b11111111 )
1+
1-
#5
0+
#6
b000000000000001 %
b0000000000000001 (
1+
#7
b10100101 )
0+
0-
#8
b11111111 )
1+
1-
#9
b000000000000010 %
b0000000000000010 (
#10
b00110010 )
0+
0-
#11
b000000000000001 %
b0000000000000001 (
b11111111 )
1+
1-
#12
0+
#13
b000000000000011 %
b0000000000000011 (
1+
#14
b10011001 )
0+
0-
#15
b11111111 )
1+
1-
#16
b000000000000100 %
b0000000000000100 (
#17
b10000000 )
0+
0-
#18
b11111111 )
1+
1-
#19
b000000010011001 %
b1000000010011001 (
#20
1"
b10100101 &
b10100101 *
0+
0.
#21
0"
1+
1.
#22
b000000000000101 %
b0000000000000101 (
#23
b00000000 &
b10101111 )
b00000000 *
0+
0-
#24
b000000000000010 %
b0000000000000010 (
b11111111 )
1+
1-
#25
0+
#26
b000000000000110 %
b0000000000000110 (
1+
#27
b10100101 &
b00111010 )
b10100101 *
0+
0-
#28
b000000000000011 %
b0000000000000011 (
b11111111 )
1+
1-
#29
0+
#30
b000000000000111 %
b0000000000000111 (
1+
#31
b00000000 &
b10011001 )
b00000000 *
0+
0-
#32
b11111111 )
1+
1-
#33
b000000000001000 %
b0000000000001000 (
#34
b10000000 )
0+
0-
#35
b11111111 )
1+
1-
#36
b000000010011001 %
b1000000010011001 (
#37
1#
b00000000 )
0+
0-
#38
0#
b10100101 '
b11111111 )
1+
1-
#39
b000000000001001 %
b0000000000001001 (
#40
b11010011 )
0+
0-
#41
b000000000000100 %
b0000000000000100 (
b11111111 )
1+
1-
#42
0+
#43
b000000000001010 %
b0000000000001010 (
1+
#44
b00000000 )
0+
0-
#45
b11111111 )
1+
1-
#46
b000000000000000 %
b0000000000000000 (
#47
0,
0.
#49
1,
1.
#50
b000000000001011 %
b0000000000001011 (
#51
b00011000 )
0+
0-
#52
b000000000000101 %
b0000000000000101 (
b11111111 )
1+
1-
#53
0+
#54
b000000000001100 %
b0000000000001100 (
1+
#55
b11111110 )
0+
0-
#56
b11111111 )
1+
1-
#57
b000000000001101 %
b0000000000001101 (
#62
b000000000001011 %
b0000000000001011 (
#63
b00011000 )
0+
0-
#64
b000000000000110 %
b0000000000000110 (
b11111111 )
1+
1-
#65
0+
#66
b000000000001100 %
b0000000000001100 (
1+
#67
b11111110 )
0+
0-
#68
b11111111 )
1+
1-
#69
b000000000001101 %
b0000000000001101 (
#74
b000000000001011 %
b0000000000001011 (
#75
b00011000 )
0+
0-
#76
b000000000000111 %
b0000000000000111 (
b11111111 )
1+
1-
#77
0+
#78
b000000000001100 %
b0000000000001100 (
1+
#79
b11111110 )
0+
0-
#80
b11111111 )
1+
1-
#81
b000000000001101 %
b0000000000001101 (
#86
b000000000001011 %
b0000000000001011 (
#87
b00011000 )
0+
0-
#88
b000000000001000 %
b0000000000001000 (
b11111111 )
1+
1-
#89
0+
#90
b000000000001100 %
b0000000000001100 (
1+
#91
b11111110 )
0+
0-
#92
b11111111 )
1+
1-
#93
b000000000001101 %
b0000000000001101 (
#98
b000000000001011 %
b0000000000001011 (
#99
b00011000 )
0+
0-
#100
b000000000001001 %
b0000000000001001 (
b11111111 )
1+
1-
#101
0+
#102
b000000000001100 %
b0000000000001100 (
1+
#103
b11111110 )
0+
0-
#104
b11111111 )
1+
1-
#105
b000000000001101 %
b0000000000001101 (
#110
b000000000001011 %
b0000000000001011 (
#111
b00011000 )
0+
0-
#112
b000000000001010 %
b0000000000001010 (
b11111111 )
1+
1-
#113
0+
#114
b000000000001100 %
b0000000000001100 (
1+
#115
b11111110 )
0+
0-
#116
b11111111 )
1+
1-
#117
b000000000001101 %
b0000000000001101 (
#122
b000000000001011 %
b0000000000001011 (
#123
b00011000 )
0+
0-
#124
b11111111 )
1+
1-
#125
0+
#126
b000000000001100 %
b0000000000001100 (
1+
#127
b11111110 )
0+
0-
#128
b11111111 )
1+
1-
#129
b000000000001101 %
b0000000000001101 (
#134
b000000000001011 %
b0000000000001011 (
#135
b00011000 )
0+
0-
#136
b000000000001100 %
b0000000000001100 (
b11111111 )
1+
1-
#137
0+
#138
1+
#139
b11111110 )
0+
0-
#140
b11111111 )
1+
1-
#141
b000000000001101 %
b0000000000001101 (
#146
b000000000001011 %
b0000000000001011 (
#147
b00011000 )
0+
0-
#148
b000000000001101 %
b0000000000001101 (
b11111111 )
1+
1-
#149
0+
#150
b000000000001100 %
b0000000000001100 (
1+
#151
b11111110 )
0+
0-
#152
b11111111 )
1+
1-
#153
b000000000001101 %
b0000000000001101 (
#158
b000000000001011 %
b0000000000001011 (
#159
b00011000 )
0+
0-
#160
b000000000001110 %
b0000000000001110 (
b11111111 )
1+
1-
#161
0+
#162
b000000000001100 %
b0000000000001100 (
1+
#163
b11111110 )
0+
0-
#164
b11111111 )
1+
1-
#165
b000000000001101 %
b0000000000001101 (
#170
b000000000001011 %
b0000000000001011 (
#171
b00011000 )
0+
0-
#172
b000000000001111 %
b0000000000001111 (
b11111111 )
1+
1-
#173
0+
#174
b000000000001100 %
b0000000000001100 (
1+
#175
b11111110 )
0+
0-
#176
b11111111 )
1+
1-
#177
b000000000001101 %
b0000000000001101 (
#182
b000000000001011 %
b0000000000001011 (
#183
b00011000 )
0+
0-
#184
b000000000010000 %
b0000000000010000 (
b11111111 )
1+
1-
#185
0+
#186
b000000000001100 %
b0000000000001100 (
1+
#187
b11111110 )
0+
0-
#188
b11111111 )
1+
1-
#189
b000000000001101 %
b0000000000001101 (
#194
b000000000001011 %
b0000000000001011 (
#195
b00011000 )
0+
0-
#196
b000000000010001 %
b0000000000010001 (
b11111111 )
1+
1-
#197
0+
#198
b000000000001100 %
b0000000000001100 (
1+
#199
b11111110 )
0+
0-
#200
b11111111 )
1+
1-
#201
b000000000001101 %
b0000000000001101 (
#206
b000000000001011 %
b0000000000001011 (
#207
b00011000 )
0+
0-
#208
b000000000010010 %
b0000000000010010 (
b11111111 )
1+
1-
#209
0+
#210
b000000000001100 %
b0000000000001100 (
1+
#211
b11111110 )
0+
0-
#212
b11111111 )
1+
1-
#213
b000000000001101 %
b0000000000001101 (
#218
b000000000001011 %
b0000000000001011 (
#219
b00011000 )
0+
0-
#220
b000000000010011 %
b0000000000010011 (
b11111111 )
1+
1-
#221
0+
#222
b000000000001100 %
b0000000000001100 (
1+
#223
b11111110 )
0+
0-
#224
b11111111 )
1+
1-
#225
b000000000001101 %
b0000000000001101 (
#230
b000000000001011 %
b0000000000001011 (
#231
b00011000 )
0+
0-
#232
b000000000010100 %
b0000000000010100 (
b11111111 )
1+
1-
#233
0+
#234
b000000000001100 %
b0000000000001100 (
1+
#235
b11111110 )
0+
0-
#236
b11111111 )
1+
1-
#237
b000000000001101 %
b0000000000001101 (
#242
b000000000001011 %
b0000000000001011 (
#243
b00011000 )
0+
0-
#244
b000000000010101 %
b0000000000010101 (
b11111111 )
1+
1-
#245
0+
#246
b000000000001100 %
b0000000000001100 (
1+
#247
b11111110 )
0+
0-
#248
b11111111 )
1+
1-
#249
b000000000001101 %
b0000000000001101 (
#254
b000000000001011 %
b0000000000001011 (
#255
b00011000 )
0+
0-
#256
b000000000010110 %
b0000000000010110 (
b11111111 )
1+
1-
#257
0+
#258
b000000000001100 %
b0000000000001100 (
1+
#259
b11111110 )
0+
0-
#260
b11111111 )
1+
1-
#261
b000000000001101 %
b0000000000001101 (
#266
b000000000001011 %
b0000000000001011 (
#267
b00011000 )
0+
0-
#268
b000000000010111 %
b0000000000010111 (
b11111111 )
1+
1-
#269
0+
#270
b000000000001100 %
b0000000000001100 (
1+
#271
b11111110 )
0+
0-
#272
b11111111 )
1+
1-
#273
b000000000001101 %
b0000000000001101 (
#278
b000000000001011 %
b0000000000001011 (
#279
b00011000 )
0+
0-
#280
b000000000011000 %
b0000000000011000 (
b11111111 )
1+
1-
#281
0+
#282
b000000000001100 %
b0000000000001100 (
1+
#283
b11111110 )
0+
0-
#284
b11111111 )
1+
1-
#285
b000000000001101 %
b0000000000001101 (
#290
b000000000001011 %
b0000000000001011 (
#291
b00011000 )
0+
0-
#292
b000000000011001 %
b0000000000011001 (
b11111111 )
1+
1-
#293
0+
#294
b000000000001100 %
b0000000000001100 (
1+
#295
b11111110 )
0+
0-
#296
b11111111 )
1+
1-
#297
b000000000001101 %
b0000000000001101 (
#302
b000000000001011 %
b0000000000001011 (
#303
b00011000 )
0+
0-
#304
b000000000011010 %
b0000000000011010 (
b11111111 )
1+
1-
#305
0+
#306
b000000000001100 %
b0000000000001100 (
1+
#307
b11111110 )
0+
0-
#308
b11111111 )
1+
1-
#309
b000000000001101 %
b0000000000001101 (
#314
b000000000001011 %
b0000000000001011 (
#315
b00011000 )
0+
0-
#316
b000000000011011 %
b0000000000011011 (
b11111111 )
1+
1-
#317
0+
#318
b000000000001100 %
b0000000000001100 (
1+
#319
b11111110 )
0+
0-
#320
b11111111 )
1+
1-
#321
b000000000001101 %
b0000000000001101 (
#326
b000000000001011 %
b0000000000001011 (
#327
b00011000 )
0+
0-
#328
b000000000011100 %
b0000000000011100 (
b11111111 )
1+
1-
#329
0+
#330
b000000000001100 %
b0000000000001100 (
1+
#331
b11111110 )
0+
0-
#332
b11111111 )
1+
1-
#333
b000000000001101 %
b0000000000001101 (
#338
b000000000001011 %
b0000000000001011 (
#339
b00011000 )
0+
0-
#340
b000000000011101 %
b0000000000011101 (
b11111111 )
1+
1-
#341
0+
#342
b000000000001100 %
b0000000000001100 (
1+
#343
b11111110 )
0+
0-
#344
b11111111 )
1+
1-
#345
b000000000001101 %
b0000000000001101 (
#350
b000000000001011 %
b0000000000001011 (
#351
b00011000 )
0+
0-
#352
b000000000011110 %
b0000000000011110 (
b11111111 )
1+
1-
#353
0+
#354
b000000000001100 %
b0000000000001100 (
1+
#355
b11111110 )
0+
0-
#356
b11111111 )
1+
1-
#357
b000000000001101 %
b0000000000001101 (
#362
b000000000001011 %
b0000000000001011 (
#363
b00011000 )
0+
0-
#364
b000000000011111 %
b0000000000011111 (
b11111111 )
1+
1-
#365
0+
#366
b000000000001100 %
b0000000000001100 (
1+
#367
b11111110 )
0+
0-
#368
b11111111 )
1+
1-
#369
b000000000001101 %
b0000000000001101 (
#374
b000000000001011 %
b0000000000001011 (
#375
b00011000 )
0+
0-
#376
b000000000100000 %
b0000000000100000 (
b11111111 )
1+
1-
#377
0+
#378
b000000000001100 %
b0000000000001100 (
1+
#379
b11111110 )
0+
0-
#380
b11111111 )
1+
1-
#381
b000000000001101 %
b0000000000001101 (
#386
b000000000001011 %
b0000000000001011 (
#387
b00011000 )
0+
0-
#388
b000000000100001 %
b0000000000100001 (
b11111111 )
1+
1-
#389
0+
#390
b000000000001100 %
b0000000000001100 (
1+
#391
b11111110 )
0+
0-
#392
b11111111 )
1+
1-
#393
b000000000001101 %
b0000000000001101 (
#398
b000000000001011 %
b0000000000001011 (
#399
b00011000 )
0+
0-
#400
b000000000100010 %
b0000000000100010 (
b11111111 )
1+
1-
#401
0+
#402
b000000000001100 %
b0000000000001100 (
1+
#403
b11111110 )
0+
0-
#404
b11111111 )
1+
1-
#405
b000000000001101 %
b0000000000001101 (
#410
b000000000001011 %
b0000000000001011 (
#411
b00011000 )
0+
0-
#412
b000000000100011 %
b0000000000100011 (
b11111111 )
1+
1-
#413
0+
#414
b000000000001100 %
b0000000000001100 (
1+
#415
b11111110 )
0+
0-
#416
b11111111 )
1+
1-
#417
b000000000001101 %
b0000000000001101 (
#422
b000000000001011 %
b0000000000001011 (
#423
b00011000 )
0+
0-
#424
b000000000100100 %
b0000000000100100 (
b11111111 )
1+
1-
#425
0+
#426
b000000000001100 %
b0000000000001100 (
1+
#427
b11111110 )
0+
0-
#428
b11111111 )
1+
1-
#429
b000000000001101 %
b0000000000001101 (
#434
b000000000001011 %
b0000000000001011 (
#435
b00011000 )
0+
0-
#436
b000000000100101 %
b0000000000100101 (
b11111111 )
1+
1-
#437
0+
#438
b000000000001100 %
b0000000000001100 (
1+
#439
b11111110 )
0+
0-
#440
b11111111 )
1+
1-
#441
b000000000001101 %
b0000000000001101 (
#446
b000000000001011 %
b0000000000001011 (
#447
b00011000 )
0+
0-
#448
b000000000100110 %
b0000000000100110 (
b11111111 )
1+
1-
#449
0+
#450
b000000000001100 %
b0000000000001100 (
1+
#451
b11111110 )
0+
0-
#452
b11111111 )
1+
1-
#453
b000000000001101 %
b0000000000001101 (
#458
b000000000001011 %
b0000000000001011 (
#459
b00011000 )
0+
0-
#460
b000000000100111 %
b0000000000100111 (
b11111111 )
1+
1-
#461
0+
#462
b000000000001100 %
b0000000000001100 (
1+
#463
b11111110 )
0+
0-
#464
b11111111 )
1+
1-
#465
b000000000001101 %
b0000000000001101 (
#470
b000000000001011 %
b0000000000001011 (
#471
b00011000 )
0+
0-
#472
b000000000101000 %
b0000000000101000 (
b11111111 )
1+
1-
#473
0+
#474
b000000000001100 %
b0000000000001100 (
1+
#475
b11111110 )
0+
0-
#476
b11111111 )
1+
1-
#477
b000000000001101 %
b0000000000001101 (
#482
b000000000001011 %
b0000000000001011 (
#483
b00011000 )
0+
0-
#484
b000000000101001 %
b0000000000101001 (
b11111111 )
1+
1-
#485
0+
#486
b000000000001100 %
b0000000000001100 (
1+
#487
b11111110 )
0+
0-
#488
b11111111 )
1+
1-
#489
b000000000001101 %
b0000000000001101 (
#494
b000000000001011 %
b0000000000001011 (
#495
b00011000 )
0+
0-
#496
b000000000101010 %
b0000000000101010 (
b11111111 )
1+
1-
#497
0+
#498
b000000000001100 %
b0000000000001100 (
1+
#499
b11111110 )
0+
0-
#500
b11111111 )
1+
1-
#501
b000000000001101 %
b0000000000001101 (
#506
b000000000001011 %
b0000000000001011 (
#507
b00011000 )
0+
0-
#508
b000000000101011 %
b0000000000101011 (
b11111111 )
1+
1-
#509
0+
#510
b000000000001100 %
b0000000000001100 (
1+
#511
b11111110 )
0+
0-
#512
b11111111 )
1+
1-
#513
b000000000001101 %
b0000000000001101 (
#518
b000000000001011 %
b0000000000001011 (
#519
b00011000 )
0+
0-
#520
b000000000101100 %
b0000000000101100 (
b11111111 )
1+
1-
#521
0+
#522
b000000000001100 %
b0000000000001100 (
1+
#523
b11111110 )
0+
0-
#524
b11111111 )
1+
1-
#525
b000000000001101 %
b0000000000001101 (
#530
b000000000001011 %
b0000000000001011 (
#531
b00011000 )
0+
0-
#532
b000000000101101 %
b0000000000101101 (
b11111111 )
1+
1-
#533
0+
#534
b000000000001100 %
b0000000000001100 (
1+
#535
b11111110 )
0+
0-
#536
b11111111 )
1+
1-
#537
b000000000001101 %
b0000000000001101 (
#542
b000000000001011 %
b0000000000001011 (
#543
b00011000 )
0+
0-
#544
b000000000101110 %
b0000000000101110 (
b11111111 )
1+
1-
#545
0+
#546
b000000000001100 %
b0000000000001100 (
1+
#547
b11111110 )
0+
0-
#548
b11111111 )
1+
1-
#549
b000000000001101 %
b0000000000001101 (
#554
b000000000001011 %
b0000000000001011 (
#555
b00011000 )
0+
0-
#556
b000000000101111 %
b0000000000101111 (
b11111111 )
1+
1-
#557
0+
#558
b000000000001100 %
b0000000000001100 (
1+
#559
b11111110 )
0+
0-
#560
b11111111 )
1+
1-
#561
b000000000001101 %
b0000000000001101 (
#566
b000000000001011 %
b0000000000001011 (
#567
b00011000 )
0+
0-
#568
b000000000110000 %
b0000000000110000 (
b11111111 )
1+
1-
#569
0+
#570
b000000000001100 %
b0000000000001100 (
1+
#571
b11111110 )
0+
0-
#572
b11111111 )
1+
1-
#573
b000000000001101 %
b0000000000001101 (
#578
b000000000001011 %
b0000000000001011 (
#579
b00011000 )
0+
0-
#580
b000000000110001 %
b0000000000110001 (
b11111111 )
1+
1-
#581
0+
#582
b000000000001100 %
b0000000000001100 (
1+
#583
b11111110 )
0+
0-
#584
b11111111 )
1+
1-
#585
b000000000001101 %
b0000000000001101 (
#590
b000000000001011 %
b0000000000001011 (
#591
b00011000 )
0+
0-
#592
b000000000110010 %
b0000000000110010 (
b11111111 )
1+
1-
#593
0+
#594
b000000000001100 %
b0000000000001100 (
1+
#595
b11111110 )
0+
0-
#596
b11111111 )
1+
1-
#597
b000000000001101 %
b0000000000001101 (
#602
b000000000001011 %
b0000000000001011 (
#603
b00011000 )
0+
0-
#604
b000000000110011 %
b0000000000110011 (
b11111111 )
1+
1-
#605
0+
#606
b000000000001100 %
b0000000000001100 (
1+
#607
b11111110 )
0+
0-
#608
b11111111 )
1+
1-
#609
b000000000001101 %
b0000000000001101 (
#614
b000000000001011 %
b0000000000001011 (
#615
b00011000 )
0+
0-
#616
b000000000110100 %
b0000000000110100 (
b11111111 )
1+
1-
#617
0+
#618
b000000000001100 %
b0000000000001100 (
1+
#619
b11111110 )
0+
0-
#620
b11111111 )
1+
1-
#621
b000000000001101 %
b0000000000001101 (
#626
b000000000001011 %
b0000000000001011 (
#627
b00011000 )
0+
0-
#628
b000000000110101 %
b0000000000110101 (
b11111111 )
1+
1-
#629
0+
#630
b000000000001100 %
b0000000000001100 (
1+
#631
b11111110 )
0+
0-
#632
b11111111 )
1+
1-
#633
b000000000001101 %
b0000000000001101 (
#638
b000000000001011 %
b0000000000001011 (
#639
b00011000 )
0+
0-
#640
b000000000110110 %
b0000000000110110 (
b11111111 )
1+
1-
#641
0+
#642
b000000000001100 %
b0000000000001100 (
1+
#643
b11111110 )
0+
0-
#644
b11111111 )
1+
1-
#645
b000000000001101 %
b0000000000001101 (
#650
b000000000001011 %
b0000000000001011 (
#651
b00011000 )
0+
0-
#652
b000000000110111 %
b0000000000110111 (
b11111111 )
1+
1-
#653
0+
#654
b000000000001100 %
b0000000000001100 (
1+
#655
b11111110 )
0+
0-
#656
b11111111 )
1+
1-
#657
b000000000001101 %
b0000000000001101 (
#662
b000000000001011 %
b0000000000001011 (
#663
b00011000 )
0+
0-
#664
b000000000111000 %
b0000000000111000 (
b11111111 )
1+
1-
#665
0+
#666
b000000000001100 %
b0000000000001100 (
1+
#667
b11111110 )
0+
0-
#668
b11111111 )
1+
1-
#669
b000000000001101 %
b0000000000001101 (
#674
b000000000001011 %
b0000000000001011 (
#675
b00011000 )
0+
0-
#676
b000000000111001 %
b0000000000111001 (
b11111111 )
1+
1-
#677
0+
#678
b000000000001100 %
b0000000000001100 (
1+
#679
b11111110 )
0+
0-
#680
b11111111 )
1+
1-
#681
b000000000001101 %
b0000000000001101 (
#686
b000000000001011 %
b0000000000001011 (
#687
b00011000 )
0+
0-
#688
b000000000111010 %
b0000000000111010 (
b11111111 )
1+
1-
#689
0+
#690
b000000000001100 %
b0000000000001100 (
1+
#691
b11111110 )
0+
0-
#692
b11111111 )
1+
1-
#693
b000000000001101 %
b0000000000001101 (
#698
b000000000001011 %
b0000000000001011 (
#699
b00011000 )
0+
0-
#700
b000000000111011 %
b0000000000111011 (
b11111111 )
1+
1-
#701
0+
#702
b000000000001100 %
b0000000000001100 (
1+
#703
b11111110 )
0+
0-
#704
b11111111 )
1+
1-
#705
b000000000001101 %
b0000000000001101 (
#710
b000000000001011 %
b0000000000001011 (
#711
b00011000 )
0+
0-
#712
b000000000111100 %
b0000000000111100 (
b11111111 )
1+
1-
#713
0+
#714
b000000000001100 %
b0000000000001100 (
1+
#715
b11111110 )
0+
0-
#716
b11111111 )
1+
1-
#717
b000000000001101 %
b0000000000001101 (
#722
b000000000001011 %
b0000000000001011 (
#723
b00011000 )
0+
0-
#724
b000000000111101 %
b0000000000111101 (
b11111111 )
1+
1-
#725
0+
#726
b000000000001100 %
b0000000000001100 (
1+
#727
b11111110 )
0+
0-
#728
b11111111 )
1+
1-
#729
b000000000001101 %
b0000000000001101 (
#734
b000000000001011 %
b0000000000001011 (
#735
b00011000 )
0+
0-
#736
b000000000111110 %
b0000000000111110 (
b11111111 )
1+
1-
#737
0+
#738
b000000000001100 %
b0000000000001100 (
1+
#739
b11111110 )
0+
0-
#740
b11111111 )
1+
1-
#741
b000000000001101 %
b0000000000001101 (
#746
b000000000001011 %
b0000000000001011 (
#747
b00011000 )
0+
0-
#748
b000000000111111 %
b0000000000111111 (
b11111111 )
1+
1-
#749
0+
#750
b000000000001100 %
b0000000000001100 (
1+
#751
b11111110 )
0+
0-
#752
b11111111 )
1+
1-
#753
b000000000001101 %
b0000000000001101 (
#758
b000000000001011 %
b0000000000001011 (
#759
b00011000 )
0+
0-
#760
b000000001000000 %
b0000000001000000 (
b11111111 )
1+
1-
#761
0+
#762
b000000000001100 %
b0000000000001100 (
1+
#763
b11111110 )
0+
0-
#764
b11111111 )
1+
1-
#765
b000000000001101 %
b0000000000001101 (
#770
b000000000001011 %
b0000000000001011 (
#771
b00011000 )
0+
0-
#772
b000000001000001 %
b0000000001000001 (
b11111111 )
1+
1-
#773
0+
#774
b000000000001100 %
b0000000000001100 (
1+
#775
b11111110 )
0+
0-
#776
b11111111 )
1+
1-
#777
b000000000001101 %
b0000000000001101 (
#782
b000000000001011 %
b0000000000001011 (
#783
b00011000 )
0+
0-
#784
b000000001000010 %
b0000000001000010 (
b11111111 )
1+
1-
#785
0+
#786
b000000000001100 %
b0000000000001100 (
1+
#787
b11111110 )
0+
0-
#788
b11111111 )
1+
1-
#789
b000000000001101 %
b0000000000001101 (
#794
b000000000001011 %
b0000000000001011 (
#795
b00011000 )
0+
0-
#796
b000000001000011 %
b0000000001000011 (
b11111111 )
1+
1-
#797
0+
#798
b000000000001100 %
b0000000000001100 (
1+
#799
b11111110 )
0+
0-
#800
b11111111 )
1+
1-
#801
b000000000001101 %
b0000000000001101 (
#806
b000000000001011 %
b0000000000001011 (
#807
b00011000 )
0+
0-
#808
b000000001000100 %
b0000000001000100 (
b11111111 )
1+
1-
#809
0+
#810
b000000000001100 %
b0000000000001100 (
1+
#811
b11111110 )
0+
0-
#812
b11111111 )
1+
1-
#813
b000000000001101 %
b0000000000001101 (
#818
b000000000001011 %
b0000000000001011 (
#819
b00011000 )
0+
0-
#820
b000000001000101 %
b0000000001000101 (
b11111111 )
1+
1-
#821
0+
#822
b000000000001100 %
b0000000000001100 (
1+
#823
b11111110 )
0+
0-
#824
b11111111 )
1+
1-
#825
b000000000001101 %
b0000000000001101 (
#830
b000000000001011 %
b0000000000001011 (
#831
b00011000 )
0+
0-
#832
b000000001000110 %
b0000000001000110 (
b11111111 )
1+
1-
#833
0+
#834
b000000000001100 %
b0000000000001100 (
1+
#835
b11111110 )
0+
0-
#836
b11111111 )
1+
1-
#837
b000000000001101 %
b0000000000001101 (
#842
b000000000001011 %
b0000000000001011 (
#843
b00011000 )
0+
0-
#844
b000000001000111 %
b0000000001000111 (
b11111111 )
1+
1-
#845
0+
#846
b000000000001100 %
b0000000000001100 (
1+
#847
b11111110 )
0+
0-
#848
b11111111 )
1+
1-
#849
b000000000001101 %
b0000000000001101 (
#854
b000000000001011 %
b0000000000001011 (
#855
b00011000 )
0+
0-
#856
b000000001001000 %
b0000000001001000 (
b11111111 )
1+
1-
#857
0+
#858
b000000000001100 %
b0000000000001100 (
1+
#859
b11111110 )
0+
0-
#860
b11111111 )
1+
1-
#861
b000000000001101 %
b0000000000001101 (
#866
b000000000001011 %
b0000000000001011 (
#867
b00011000 )
0+
0-
#868
b000000001001001 %
b0000000001001001 (
b11111111 )
1+
1-
#869
0+
#870
b000000000001100 %
b0000000000001100 (
1+
#871
b11111110 )
0+
0-
#872
b11111111 )
1+
1-
#873
b000000000001101 %
b0000000000001101 (
#878
b000000000001011 %
b0000000000001011 (
#879
b00011000 )
0+
0-
#880
b000000001001010 %
b0000000001001010 (
b11111111 )
1+
1-
#881
0+
#882
b000000000001100 %
b0000000000001100 (
1+
#883
b11111110 )
0+
0-
#884
b11111111 )
1+
1-
#885
b000000000001101 %
b0000000000001101 (
#890
b000000000001011 %
b0000000000001011 (
#891
b00011000 )
0+
0-
#892
b000000001001011 %
b0000000001001011 (
b11111111 )
1+
1-
#893
0+
#894
b000000000001100 %
b0000000000001100 (
1+
#895
b11111110 )
0+
0-
#896
b11111111 )
1+
1-
#897
b000000000001101 %
b0000000000001101 (
#902
b000000000001011 %
b0000000000001011 (
#903
b00011000 )
0+
0-
#904
b000000001001100 %
b0000000001001100 (
b11111111 )
1+
1-
#905
0+
#906
b000000000001100 %
b0000000000001100 (
1+
#907
b11111110 )
0+
0-
#908
b11111111 )
1+
1-
#909
b000000000001101 %
b0000000000001101 (
#914
b000000000001011 %
b0000000000001011 (
#915
b00011000 )
0+
0-
#916
b000000001001101 %
b0000000001001101 (
b11111111 )
1+
1-
#917
0+
#918
b000000000001100 %
b0000000000001100 (
1+
#919
b11111110 )
0+
0-
#920
b11111111 )
1+
1-
#921
b000000000001101 %
b0000000000001101 (
#926
b000000000001011 %
b0000000000001011 (
#927
b00011000 )
0+
0-
#928
b000000001001110 %
b0000000001001110 (
b11111111 )
1+
1-
#929
0+
#930
b000000000001100 %
b0000000000001100 (
1+
#931
b11111110 )
0+
0-
#932
b11111111 )
1+
1-
#933
b000000000001101 %
b0000000000001101 (
#938
b000000000001011 %
b0000000000001011 (
#939
b00011000 )
0+
0-
#940
b000000001001111 %
b0000000001001111 (
b11111111 )
1+
1-
#941
b000000000001101 %
b0000000000001101 (
#945
b000000000001011 %
b0000000000001011 (
#946
b00011000 )
0+
0-
#947
b000000001010000 %
b0000000001010000 (
b11111111 )
1+
1-
#948
0+
#949
b000000000001100 %
b0000000000001100 (
1+
#950
b11111110 )
0+
0-
#951
b11111111 )
1+
1-
#952
b000000000001101 %
b0000000000001101 (
#957
b000000000001011 %
b0000000000001011 (
#958
b00011000 )
0+
0-
#959
b000000001010001 %
b0000000001010001 (
b11111111 )
1+
1-
#960
0+
#961
b000000000001100 %
b0000000000001100 (
1+
#962
b11111110 )
0+
0-
#963
b11111111 )
1+
1-
#964
b000000000001101 %
b0000000000001101 (
#969
b000000000001011 %
b0000000000001011 (
#970
b00011000 )
0+
0-
#971
b000000001010010 %
b0000000001010010 (
b11111111 )
1+
1-
#972
0+
#973
b000000000001100 %
b0000000000001100 (
1+
#974
b11111110 )
0+
0-
#975
b11111111 )
1+
1-
#976
b000000000001101 %
b0000000000001101 (
#981
b000000000001011 %
b0000000000001011 (
#982
b00011000 )
0+
0-
#983
b000000001010011 %
b0000000001010011 (
b11111111 )
1+
1-
#984
0+
#985
b000000000001100 %
b0000000000001100 (
1+
#986
b11111110 )
0+
0-
#987
b11111111 )
1+
1-
#988
b000000000001101 %
b0000000000001101 (
#993
b000000000001011 %
b0000000000001011 (
#994
b00011000 )
0+
0-
#995
b000000001010100 %
b0000000001010100 (
b11111111 )
1+
1-
#996
0+
#997
b000000000001100 %
b0000000000001100 (
1+
#998
b11111110 )
0+
0-
#999
b11111111 )
1+
1-
#1000
b000000000001101 %
b0000000000001101 (
#1005
b000000000001011 %
b0000000000001011 (
#1006
b00011000 )
0+
0-
#1007
b000000001010101 %
b0000000001010101 (
b11111111 )
1+
1-
#1008
0+
#1009
b000000000001100 %
b0000000000001100 (
1+
#1010
b11111110 )
0+
0-
#1011
b11111111 )
1+
1-
#1012
b000000000001101 %
b0000000000001101 (
#1017
b000000000001011 %
b0000000000001011 (
#1018
b00011000 )
0+
0-
#1019
b000000001010110 %
b0000000001010110 (
b11111111 )
1+
1-
#1020
0+
#1021
b000000000001100 %
b0000000000001100 (
1+
#1022
b11111110 )
0+
0-
#1023
b11111111 )
1+
1-
#1024
b000000000001101 %
b0000000000001101 (
#1029
b000000000001011 %
b0000000000001011 (
#1030
b00011000 )
0+
0-
#1031
b000000001010111 %
b0000000001010111 (
b11111111 )
1+
1-
#1032
0+
#1033
b000000000001100 %
b0000000000001100 (
1+
#1034
b11111110 )
0+
0-
#1035
b11111111 )
1+
1-
#1036
b000000000001101 %
b0000000000001101 (
#1041
b000000000001011 %
b0000000000001011 (
#1042
b00011000 )
0+
0-
#1043
b000000001011000 %
b0000000001011000 (
b11111111 )
1+
1-
#1044
0+
#1045
b000000000001100 %
b0000000000001100 (
1+
#1046
b11111110 )
0+
0-
#1047
b11111111 )
1+
1-
#1048
b000000000001101 %
b0000000000001101 (
#1053
b000000000001011 %
b0000000000001011 (
#1054
b00011000 )
0+
0-
#1055
b000000001011001 %
b0000000001011001 (
b11111111 )
1+
1-
#1056
0+
#1057
b000000000001100 %
b0000000000001100 (
1+
#1058
b11111110 )
0+
0-
#1059
b11111111 )
1+
1-
#1060
b000000000001101 %
b0000000000001101 (
#1065
b000000000001011 %
b0000000000001011 (
#1066
b00011000 )
0+
0-
#1067
b000000001011010 %
b0000000001011010 (
b11111111 )
1+
1-
#1068
0+
#1069
b000000000001100 %
b0000000000001100 (
1+
#1070
b11111110 )
0+
0-
#1071
b11111111 )
1+
1-
#1072
b000000000001101 %
b0000000000001101 (
